{u'changed': True,
 u'counter': 12,
 u'currentplanet': u'none',
 u'currentsystem': u'Wolf 1061',
 u'ismining': False,
 u'name': u'General Dynamics India Class ISV [The Elementalists]',
 u'peer': u'64.129.254.57:52894',
 u'starget': None,
 u'systemvecx': 0,
 u'systemvecy': 0,
 u'systemx': 172,
 u'systemy': 1,
 u'teamid': u'rv4ko9w',
 u'univecx': 0,
 u'univecy': 0,
 u'unix': 80,
 u'uniy': 30,
 u'utarget': None}
{u'resources': [{u'amount': 9, u'name': u'Unobtainium'},
                {u'amount': 9.999999999999988, u'name': u'Tiberium'},
                {u'amount': 9.8, u'name': u'Vespene gas'},
                {u'amount': 9, u'name': u'Xenium'}]}
{u'systems': [{u'functionality': 1,
               u'name': u'Alcubierre Singularity Propulsion Drive'},
              {u'functionality': 1, u'name': u'Manifold Tidal Stabilizer'},
              {u'functionality': 1, u'name': u'Repulsor Shields'},
              {u'functionality': 1,
               u'name': u'Directed Energy Weapon System'},
              {u'functionality': 1, u'name': u'Mining Drones'},
              {u'functionality': 1, u'name': u'Tactical Conflict AI'},
              {u'functionality': 1,
               u'name': u'Gravitational Disturbance Sensor'},
              {u'functionality': 0.9700000000000033,
               u'name': u'Sublight Impulse Propulsion Drive'},
              {u'functionality': 1,
               u'name': u'Devirtualization Fab Workshop'}]}
{u'otherships': [{u'name': u'Unidentified vessel 1 (20 kton est.)',
                  u'x': 10,
                  u'y': 160},
                 {u'name': u'Unidentified vessel 2 (20 kton est.)',
                  u'x': 80,
                  u'y': 30},
                 {u'name': u'Unidentified vessel 4 (20 kton est.)',
                  u'x': 10,
                  u'y': 160},
                 {u'name': u'Unidentified vessel 5 (20 kton est.)',
                  u'x': 80,
                  u'y': 120},
                 {u'name': u'Unidentified vessel 6 (20 kton est.)',
                  u'x': 10,
                  u'y': 160},
                 {u'name': u'Unidentified vessel 7 (20 kton est.)',
                  u'x': 80,
                  u'y': 30},
                 {u'name': u'Unidentified vessel 8 (20 kton est.)',
                  u'x': 10,
                  u'y': 160},
                 {u'name': u'General Dynamics India Class ISV [Robert Cresswell, John Davidge]',
                  u'x': 80,
                  u'y': 120},
                 {u'name': u'General Dynamics India Class ISV [TokBoxer]',
                  u'x': 10,
                  u'y': 160},
                 {u'name': u'General Dynamics India Class ISV [Meden Pai]',
                  u'x': 140,
                  u'y': 170},
                 {u'name': u'General Dynamics India Class ISV [Tartans]',
                  u'x': 70,
                  u'y': 190},
                 {u'name': u'General Dynamics India Class ISV [CMUJediNerds]',
                  u'x': 50,
                  u'y': 60},
                 {u'name': u'General Dynamics India Class ISV [tsundere]',
                  u'x': 80,
                  u'y': 30},
                 {u'name': u'General Dynamics India Class ISV [Krishnan Narayan, Sreenidhi Sreesha, Charlie Federspiel]',
                  u'x': 178.00000000000145,
                  u'y': 115.9999999999988},
                 {u'name': u'General Dynamics India Class ISV [ASK_MEN]',
                  u'x': 50,
                  u'y': 60},
                 {u'name': u'General Dynamics India Class ISV [Shawn Ma, Shirish Mandadi]',
                  u'x': 50,
                  u'y': 60},
                 {u'name': u'General Dynamics India Class ISV [ILovePython]',
                  u'x': 142,
                  u'y': 77},
                 {u'name': u'General Dynamics India Class ISV [TPA]',
                  u'x': 100,
                  u'y': 100},
                 {u'name': u'General Dynamics India Class ISV [CIIP]',
                  u'x': 66.4000000000005,
                  u'y': 102.42502128238377},
                 {u'name': u'General Dynamics India Class ISV [berktriotech]',
                  u'x': 129.60000000000076,
                  u'y': 49.20000000000064},
                 {u'name': u'General Dynamics India Class ISV [Alexander Zubko, Peter Vajda]',
                  u'x': 140,
                  u'y': 170},
                 {u'name': u'General Dynamics India Class ISV [Tropic Thunder]',
                  u'x': 140,
                  u'y': 170},
                 {u'name': u'General Dynamics India Class ISV [Dan Stormont, Chris Salij, Paul Elder]',
                  u'x': 100,
                  u'y': 100}],
 u'stars': [{u'class': u'M4.5V',
             u'name': u'Ross 614',
             u'planets': u'8',
             u'x': u'100',
             u'y': u'100'},
            {u'class': u'M3.0V',
             u'name': u'Wolf 1061',
             u'planets': u'5',
             u'x': u'80',
             u'y': u'30'},
            {u'class': u'DZ7',
             u'name': u"Van Maanen's star",
             u'planets': u'8',
             u'x': u'10',
             u'y': u'160'},
            {u'class': u'M3.0V',
             u'name': u'Gliese 1',
             u'planets': u'12',
             u'x': u'140',
             u'y': u'170'},
            {u'class': u'M4.5V',
             u'name': u'TZ Arietis',
             u'planets': u'6',
             u'x': u'142',
             u'y': u'77'},
            {u'class': u'M3.0V',
             u'name': u'Gliese 687',
             u'planets': u'3',
             u'x': u'80',
             u'y': u'120'},
            {u'class': u'M4.5V',
             u'name': u'Gliese 876',
             u'planets': u'4',
             u'x': u'180',
             u'y': u'28'},
            {u'class': u'M2.0V',
             u'name': u'Lalande 21185',
             u'planets': u'5',
             u'x': u'42',
             u'y': u'180'},
            {u'class': u'K2V',
             u'name': u'Epsilon Eridani',
             u'planets': u'10',
             u'x': u'50',
             u'y': u'60'},
            {u'class': u'M4.5V',
             u'name': u"Kapteyn's star",
             u'planets': u'8',
             u'x': u'170',
             u'y': u'166'},
            {u'class': u'M0.0V',
             u'name': u'Lacaille 8760',
             u'planets': u'1',
             u'x': u'70',
             u'y': u'190'}]}
{u'otherships': [{u'name': u'Unidentified vessel 2 (20 kton est.)',
                  u'x': 19.10744999998627,
                  u'y': 92.85415000005126},
                 {u'name': u'Unidentified vessel 7 (20 kton est.)',
                  u'x': 40.83290000004123,
                  u'y': 12.13154999995649},
                 {u'name': u'General Dynamics India Class ISV [tsundere]',
                  u'x': 86.53962200000208,
                  u'y': 80.71554999999611}],
 u'system': {u'class': u'M3.0V',
             u'name': u'Wolf 1061',
             u'planetarray': [{u'cloud_cover': u'0.000',
                               u'day': u'5730.795',
                               u'esc_velocity': u'579225.370',
                               u'orbit_zone': u'1',
                               u'planet_no': u'Wolf 1061 I',
                               u'radius': u'3346.411',
                               u'surf_grav': u'0.511',
                               u'type': u'Rock',
                               u'x': 19,
                               u'y': 93},
                              {u'cloud_cover': u'0.233',
                               u'day': u'15.854',
                               u'esc_velocity': u'1167619.950',
                               u'orbit_zone': u'1',
                               u'planet_no': u'Wolf 1061 II',
                               u'radius': u'6649.917',
                               u'surf_grav': u'1.045',
                               u'type': u'Terrestrial',
                               u'x': 45,
                               u'y': 143},
                              {u'cloud_cover': u'1.000',
                               u'day': u'8.304',
                               u'esc_velocity': u'4982098.704',
                               u'orbit_zone': u'1',
                               u'planet_no': u'Wolf 1061 III',
                               u'radius': u'51230.910',
                               u'surf_grav': u'  inf',
                               u'type': u'Jovian',
                               u'x': 154,
                               u'y': 182},
                              {u'cloud_cover': u'0.000',
                               u'day': u'2106.273',
                               u'esc_velocity': u'561931.556',
                               u'orbit_zone': u'1',
                               u'planet_no': u'Wolf 1061 IV',
                               u'radius': u'3247.403',
                               u'surf_grav': u'0.496',
                               u'type': u'Rock',
                               u'x': 169,
                               u'y': 169},
                               u'day': u'5730.795',
                               u'esc_velocity': u'579225.370',
                               u'orbit_zone': u'1',
                               u'planet_no': u'Wolf 1061 I',
                               u'radius': u'3346.411',
                               u'surf_grav': u'0.511',
                               u'type': u'Rock',
                               u'x': 19,
                               u'y': 93},
                              {u'cloud_cover': u'0.233',
                               u'day': u'15.854',
                               u'esc_velocity': u'1167619.950',
                               u'orbit_zone': u'1',
                               u'planet_no': u'Wolf 1061 II',
                               u'radius': u'6649.917',
                               u'surf_grav': u'1.045',
                               u'type': u'Terrestrial',
                               u'x': 45,
                               u'y': 143},
                              {u'cloud_cover': u'1.000',
                               u'day': u'8.304',
                               u'esc_velocity': u'4982098.704',
                               u'orbit_zone': u'1',
                               u'planet_no': u'Wolf 1061 III',
                               u'radius': u'51230.910',
                               u'surf_grav': u'  inf',
                               u'type': u'Jovian',
                               u'x': 154,
                               u'y': 182},
                              {u'cloud_cover': u'0.000',
                               u'day': u'2106.273',
                               u'esc_velocity': u'561931.556',
                               u'orbit_zone': u'1',
                               u'planet_no': u'Wolf 1061 IV',
                               u'radius': u'3247.403',
                               u'surf_grav': u'0.496',
                               u'type': u'Rock',
                               u'x': 169,
                               u'y': 169},
                              {u'cloud_cover': u'0.000',
                               u'day': u'2512.554',
                               u'esc_velocity': u'222954.348',
                               u'orbit_zone': u'1',
                               u'planet_no': u'Wolf 1061 V',
                               u'radius': u'1293.327',
                               u'surf_grav': u'0.196',
                               u'type': u'Rock',
                               u'x': 41,
                               u'y': 12}],
             u'planets': u'5',
             u'x': u'80',
             u'y': u'30'}}
{}

